{
  "images" : [
    {
      "filename" : "logo-resizable.pdf",
      "idiom" : "universal"
    }
  ],
  "info" : {
    "author" : "xcode",
    "version" : 1
  },
  "properties" : {
    "auto-scaling" : "auto",
    "preserves-vector-representation" : true
  }
}
